{
	"totalRecords": 27,
	"totalPages": 6,
	"pageSize": 5,
	"pageNumber": 1,
	"list": [{
		"id": 85,
		"name": "「早鸟票」伊藤润二经典美学AR体验展 • 北京站",
		"tenantId": 1,
		"productCategoryId": 7,
		"sku": "20170908222541",
		"commentCount": 0,
		"price": 0.00,
		"freight": 0.00,
		"startPrice": 60.00,
		"endPrice": 60.00,
		"startDate": "2017-09-08T22:40:44",
		"endDate": "2017-09-23T22:40:44",
		"description": "<p>他是恐怖漫画届教父级别的艺术大师，他是日本近代最重要的经典美学漫画家，他的艺术作品会引发人们发自内心的恐惧，但同时他在全世界拥有者众多骨灰级粉丝，他的作品也被世界范围内的传播，他就是 - 伊藤润二，世界级经典美学恐怖大师。<br/></p><p><img src=\"http://7xkcpc.com2.z0.glb.qiniucdn.com/pgc/richtext/10ee42cbebca4f69914b0def0ae10c46.jpeg#816|544\" title=\"\" alt=\"\"/></p><p>&nbsp;&nbsp;&nbsp;&nbsp;&nbsp;&nbsp;&nbsp;伊藤润二大师是日本著名经典美学漫画家，出生于日本的岐阜县。自他年幼时期便热衷于楳图一雄与古贺新一的奇怪漫画，遂展开其自身的绘画生涯。其代表作无数，《富江》系列、《漩涡》、《至死不渝的爱》、《人头气球》等等，被电影化的作品多不胜数。伊藤润二大师除获得各国艺术文化奖项外，更经常受邀参加各国举办的知名漫画及艺术展，更担任2015法国昂古莱姆国际漫画节的荣誉嘉宾。</p><p><img src=\"http://7xkcpc.com2.z0.glb.qiniucdn.com/pgc/richtext/6ddd2504ef114593bdb3f537625303d1.jpeg#883|582\" title=\"\" alt=\"\"/>&nbsp;</p><p>&nbsp;&nbsp;&nbsp;&nbsp;&nbsp;&nbsp;&nbsp;就在今年的9月24日到12月17日期间，在北京今日美术馆（Today Art Museum)将为大家带来伊藤润二大师的原味恐怖美学AR体验艺术展。《伊藤润二经典美学AR体验展》这次到达北京站，是对伊藤粉丝们尤其是北京地区粉丝们的一个热切呼唤：看过的小伙伴可以再次来饱眼福啦！没看过的小伙伴你还在等什么？北京站的伊藤展地点选在了全国第一家非盈利的公益美术馆---北京今日美术馆，这次展览将全方位展出伊藤润二大师的很多著名作品，并且结合当代最新的AR视觉科技，将现实作品和虚拟场景相结合全方位的向大家呈现出最震撼的恐怖美学， 展览还相配有最原汁原味的伊藤风周边，让大家淋漓尽致的感受到视觉冲击和感官享受。</p><p><img src=\"http://7xkcpc.com2.z0.glb.qiniucdn.com/pgc/richtext/9935277135a34b79b95e1db1637aeaf9.jpeg#612|459\" title=\"\" alt=\"\"/>&nbsp;</p><p>&nbsp;&nbsp;&nbsp;&nbsp;&nbsp;&nbsp;伊藤润二大师笔下的所有作品，让人在阅读完种种令人焦虑与心惊的画面之后，都会坠入到凄冷的黑暗漩涡里的，但更多的是有着让人读后念念不忘而且还会让自己进行深刻反思的魅力。在美学艺术界，恐怖是一种为了达到作品严肃性的方法手段而已，而伊藤润二大师无疑更具有掌控恐怖的能力，他的恐怖纠缠于手段与目的之间，贯穿于作品的每一个笔触却是具有与生俱来的严肃性与深刻性的交织悲鸣，每一幅画面都在展现着人类的丑恶举动。对于漫画来说，最重要的表达就是线条，每一个线条每一个笔触都毫无保留的展现了作者的内心感受，是作者将自己的艺术所对外表达的一种方式。</p><p><img src=\"http://7xkcpc.com2.z0.glb.qiniucdn.com/pgc/richtext/6182cb86ce634f93bc1a8fb16be84987.jpeg#557|810\" title=\"\" alt=\"\"/>&nbsp;</p><p>&nbsp;&nbsp;&nbsp;&nbsp;&nbsp;&nbsp; 1986年伊藤获得“楳图赏”的作品《富江》里清晰可见一种粗旷的写实风格，《富江》三卷通篇都围绕着“美与丑”的辩证进行讲述，主人公“富江”是一个极其美丽的尤物，几乎被所有男性爱慕，但却招来自己的杀生之祸。有趣的是，她本身竟是可以无限繁殖的怪物，被肢解的身体部分又可以重新生成一个个新的“富江”。所有男人都想得到拥有她，所有女人都嫉妒讨厌她，而“富江”们本身也在互相嫉恨，以至于指示拜倒在她们裙下的男人们互相杀戮，最后却都难免被肢解的命运。在伊藤的观念中“富江”的美承载了人类本性的贪婪与欲望，其被思想控制后的表现都极为丑陋，在这个意义上，美女与烂肉无异，美丽与丑陋无法分别，就像优美流畅的线条勾勒出阴森可怕的外形，伊藤在所有作品中都试图表达着“美丽是丑陋的而丑陋仍然是丑陋的”。</p><p><img src=\"http://7xkcpc.com2.z0.glb.qiniucdn.com/pgc/richtext/14c0a67a357e4e44ac19657f8fbf0d7c.jpeg#640|937\" title=\"\" alt=\"\"/>&nbsp;</p><p>&nbsp;&nbsp;&nbsp;&nbsp;&nbsp;&nbsp;&nbsp;&nbsp;这种美好在伊藤的恐怖漫画作品中成为了一种假象，随之而来的便是绝望，但是伊藤大师却又留存这一线希望来玩转读者的脑细胞，这种存在的一线希望，便是爱情。伊藤大师在其作品中对爱情部分的处理，是十分细腻和表述最伟大升级化。在《至死不渝的爱》和《漩涡》作品里都表现了恋人间的对待爱情的忠贞和为其牺牲，其&nbsp;爱情主题能呈现出丰富多彩的内容，对爱情的描绘往往更能体现出人性的复杂与自私，而当人性的私欲与需要与别人分享的爱情冲突之后，种种意想不到的变异后果便发生了，伊藤大师要展现的便是这些之后的奇特爱情的附加状态。在伊藤大师不断进行创造的艺术生涯里，他的线条变得更加细腻柔软，但是一改不变的还是他的漫画写实主义风格，在这种风格下，伊藤大师的作品才会一直带给我们强大的视觉冲击感，其漫画内容的丰富曲折，情节赋有伸缩的张力，同时还有着深刻引发人生思考的漫画主题，表达着善爱恶丑的基调，一直影响着大众读者们，让我们的感官世界在被恐怖美学支配、身心感受着暴力美学带给我们的快感的同时，心灵的深处更是引发人们对于人性道德的主动思考和理解。&nbsp;</p><p><img src=\"http://7xkcpc.com2.z0.glb.qiniucdn.com/pgc/richtext/1cd8a5893c4549c2b9b280940a9f2aac.jpeg#468|692\" title=\"\" alt=\"\"/>&nbsp;</p><p>如此潮的【伊藤润二经典美学AR体验展】有着你让你不得不看的魅力！</p><p>&nbsp;</p><p>魅力一：吸引了无数世界级名人的目光</p><p>&nbsp;&nbsp;&nbsp;&nbsp;&nbsp;&nbsp;&nbsp;&nbsp;&nbsp;伊藤润二不仅是在日本很受欢迎的恐怖漫画大师，近几年魅力更是席卷全球，作品被翻译成12种语言，不仅在英语系、欧洲及亚洲国家掀起一股热潮，连东欧及南美洲都有热情粉丝，甚至连漫画界最重要的法国安古兰漫画展，都曾邀他举办活动！世界级恐怖大师称号，伊藤润二当之无愧。</p><p>&nbsp;&nbsp;&nbsp;&nbsp;&nbsp;&nbsp;&nbsp;&nbsp;&nbsp;话题女王伊能静看完展览评价说&nbsp;“超恐怖又有趣”；创作天后陈珊妮不但玩了两次自拍机还“难得败了周边商品”；音乐与戏剧双栖才子梁正群被“吓傻了”、除此之外，演员黄河、主持人黄子佼、占星女王唐立淇、主持人蔡灿得也都亲自到现场看展或参加见面会。</p><p>&nbsp;&nbsp;&nbsp;&nbsp;&nbsp;&nbsp;&nbsp;&nbsp;&nbsp;来看<strong>【伊藤</strong><strong>润</strong><strong>二</strong><strong>经</strong><strong>典美学</strong><strong>AR</strong><strong>体</strong><strong>验</strong><strong>大展】</strong>，早已经成为一个几乎全球文艺青年及恐怖漫画发烧友间的交流话题，一起来感受人性的压抑情感，展现这残酷悲剧的作品，透过伊藤润二的漫画作品，在看展时找到难得的审美共鸣。</p><p><img src=\"http://7xkcpc.com2.z0.glb.qiniucdn.com/pgc/richtext/859d05eeb6ed4de4b37a985d475ab092.jpeg#363|544\" title=\"\" alt=\"\"/>&nbsp;</p><p>魅力二：史无前例的预售盛况一票难求&nbsp;&nbsp;</p><p><strong>&nbsp;&nbsp;&nbsp;&nbsp;&nbsp;&nbsp;&nbsp;</strong><strong>【伊藤</strong><strong>润</strong><strong>二</strong><strong>经</strong><strong>典美学</strong><strong>AR</strong><strong>体</strong><strong>验</strong><strong>大展】</strong>&nbsp;早在2015年首度展出时，创下台湾文创展演的售票纪录。展览官方粉丝团人数一上线就于第一日内冲破20,000人大关, 2017年2月在香港中环PMQ文创空间登场，短短21天展期，每天都挤得水泄不通！周六日光是排队进场就需要3-4个小时。在上海艺仓美术馆也79天展期更是创下8万人的参观纪录！现在伊藤大展终于到达了首都北京，身在帝都的发烧友和美学爱好者们，一定不能错过这次最近距离感受当代漫画大师作品的机会，一定要提前买票稳稳的进场呀。</p><p><img src=\"http://7xkcpc.com2.z0.glb.qiniucdn.com/pgc/richtext/d6a8f9c48cd84aa88d3005ee262abc3e.jpeg#566|378\" title=\"\" alt=\"\"/></p><p>（伊藤润二大师与粉丝的合影）</p><p><strong>&nbsp;</strong></p><p><strong>魅力三：最前线的艺术趋势融合多种体验</strong></p><p><strong>&nbsp;&nbsp;&nbsp;&nbsp;&nbsp;&nbsp;</strong><strong>【伊藤</strong><strong>润</strong><strong>二</strong><strong>经</strong><strong>典美学</strong><strong>AR</strong><strong>体</strong><strong>验</strong><strong>展】</strong>如此受欢迎，除了伊藤润二经典作品加持外，策展团队的高水平策划，也让观众的感官世界和精神世界都被震撼，深深抓住了各路伊粉的心。</p><p>无论是可以印出专属人头气球页面的<strong>「人</strong><strong>头</strong><strong>气球拍照亭」</strong>，还是首度以近3米高度印制的超大幅彩图，又或是令人尖叫不断的AR体验，都让观众大呼过瘾！大展更全球首度公开作者的工作室，让读者们有机会见识到伊藤润二“独特恐怖美学”的诞生过程！一次性满足大家所有对伊藤润二大师的期待。</p><p><img src=\"http://7xkcpc.com2.z0.glb.qiniucdn.com/pgc/richtext/6b0477df3dd04a8eaca99d7215ae415d.jpeg#688|387\" title=\"\" alt=\"\"/>&nbsp;</p><p>（观众亲身体验AR视觉科技）&nbsp;</p><p>&nbsp;&nbsp;&nbsp;&nbsp; &nbsp;&nbsp;9月24日开幕直到12月份在北京今日美术馆，大家可以以最近的距离，通过其残酷悲伤的作品，善与美爱与恨的交织表达，黑与白弯与直的画面，感受伊藤大师的内心真挚的流露。与AR视觉科技的完美结合，更加让我们的感官世界尽情暴露在被恐怖美学支配中、全身心感受并且享受着暴力美学带给我们的快感，让我们的心灵的深处跟随者伊藤润二大师的作品进行对于道德与人性的理解和思考。</p><p><img src=\"http://7xkcpc.com2.z0.glb.qiniucdn.com/pgc/richtext/6768bb871842429e8b8db63246c5cd30.jpeg#733|427\" title=\"\" alt=\"\"/></p><p>（伊藤润二大师照片）</p>",
		"imageLists": [{
			"key": "pgc/activity/df87c9c74d7f463d8b672429c1dddae2.jpg",
			"width": 600,
			"height": 288
		}],
		"stock": 300,
		"orderImages": {
			"key": "pgc/activity/77457c3fb8f14befab3f7ac69ff2a09e.jpg",
			"width": 400,
			"height": 400
		},
		"covetImages": {
			"key": "pgc/activity/475c745f9fea48199ca17d66c0ba8fcb.jpg",
			"width": 600,
			"height": 288
		},
		"reminder": "开展期间任意一天，1人1票1次入场有效\n营业时间：周一至周日每天10：00-18：00（最迟入馆时间17：30）；\n请凭手机短信或个人账号内的订单号于场馆前台兑换入场；\n一经出售，恕不退换。",
		"summary": "时间：2017/09/24-2017/12/17\n地点：北京市朝阳区百子湾路32号 | 北京今日美术馆2号馆",
		"isEnable": true,
		"sortId": 0,
		"brand": "今日美术馆",
		"safeStock": 20,
		"canExchangeScore": false,
		"nativeUrl": "http://www.vart.cc/activities/4690",
		"name_en": "伊藤润二经典美学AR体验展 • 北京站",
		"isMemberProduct": false,
		"mpProductIds": [],
		"canBuy": true,
		"canDisplayInApp": false,
		"tenantAgentIds": [],
		"saleType": 0
	}, {
		"id": 72,
		"name": "2017影像上海艺术博览会",
		"tenantId": 1,
		"productCategoryId": 7,
		"sku": "20170906093723",
		"commentCount": 0,
		"price": 0.00,
		"freight": 0.00,
		"startPrice": 100.00,
		"endPrice": 600.00,
		"startDate": "2017-09-06T19:32:00",
		"endDate": "2017-09-10T19:32:00",
		"description": "<p>作为亚太地区最具影响力的影像艺术平台、中国大陆最为国际化的艺博会，影像上海艺术博览会在过去几年中，对亚洲艺术影像市场起到了至关重要的推动作用，亦建立起关于艺术影像媒介最为权威和活跃的交流平台。&nbsp;</p><p><img src=\"http://7xkcpc.com2.z0.glb.qiniucdn.com/pgc/richtext/a62b4dd12c244186a2ce790706d69ec7.jpg#900|1345\"/></p><p>进入第四年之际，影像上海将保持开拓精神，聚焦国际前沿，以博物馆品质提供诸多版块的全新内容，为亚太藏家、观众和专业人士提供欣赏和发现影像艺术的最佳体验。第四届影像上海艺术博览会由世界摄影组织和保时捷联合呈现。&nbsp;</p><p><img src=\"http://7xkcpc.com2.z0.glb.qiniucdn.com/pgc/richtext/9539a49c440b4fb694303a44531180e2.jpg#900|593\"/></p><p>© Harry Callahan, Chicago, c. 1951, Courtesy of The Estate of Harry Callahan and Robert Mann Gallery, (New York)<br/></p><p>过去几年间，影像上海通过严格甄选和精心策展，聚集了来自不同国家和地区的重要画廊，本届艺博会已确认参加的画廊分别来自14个国家和地区，分布在核心 (Main) 和平台 (Platform) 两大版块，前者汇集了专注于现当代摄影的国际顶尖画廊，后者则是新兴艺术家和国际画廊的重要平台，完整参展名单将于今夏公布。</p><p><img src=\"http://7xkcpc.com2.z0.glb.qiniucdn.com/pgc/richtext/965c73c4de514d69a77cee752c1ec85c.jpg#900|600\"/></p><p>© ROBERT ZHAO, Bee Trap, 2014, Courtesy of ShanghART Gallery (Shanghai, Beijing &amp; Singapore)<br/></p><p>从教科书级别的历史性重要艺术家，到活跃在国际摄影和移动影像艺术前沿的艺术新星，逾百位各个年龄层次的优秀艺术家的力作将济济一堂。第四届博览会上，Robert Mapplethorpe, Henri Cartier Bresson, Edward Weston, Marc Riboud, Roman Signer, Alexander Rodchenko, Wolfgang Tillmans, Cindy Sherman, 曾梵志, 张海儿等大师级艺术家的名作将出现在画廊和特展版块。与此同时，博览会亦将把亚洲新一代影像艺术家推向台前，不断重新定义和拓宽影像这一媒介边界。</p><p><img src=\"http://7xkcpc.com2.z0.glb.qiniucdn.com/pgc/richtext/7015446646b94c3da39a6b49bbc1f62e.jpg#900|506\"/></p><p>©Yang Yongliang, Endless Streams, 2017, Courtesy of Matthew Liu Fine Arts (Shanghai)<br/></p><p>第四届博览会还将推出多个精彩的特展和公共版块，其中包括：&nbsp;</p><p>在场 Staged&nbsp;</p><p>一个独树一帜的实验性平台，通过大型作品探索摄影与装置、录像、行为等其他艺术媒介的关系。&nbsp;</p><p><img src=\"http://7xkcpc.com2.z0.glb.qiniucdn.com/pgc/richtext/a528404b7fb54d63a6d4334c088c0524.jpg#900|585\"/></p><p>© ANDREA GOOD ES WARD ES WIRD I Drahtwerk Bözingen VII Taubenlochschlucht, 2011, Courtesy of Galerie Stephan Witschi (Zurich)<br/></p><p>收藏家特展 Collectors&#39; Exhibi&nbsp;</p><p>展出中国最具影响力的藏家的收藏力作。周大为（Cc基金会）, 郑志刚（K11艺术基金会）, 邵忠（现代传播集团）, 王津元（复兴基金会）等知名收藏家将参展。&nbsp;</p><p><img src=\"http://7xkcpc.com2.z0.glb.qiniucdn.com/pgc/richtext/a6e09db459bd4363804540a39da6583d.jpg#900|890\"/></p><p>© Jeff Brouws FPH grid, Daly City, CA 1991, Courtesy of Robert Mann Gallery (San Francisco)</p><p>对话 Conversations&nbsp;</p><p>诸多摄影和影像领域专业人士和艺术家将围绕摄影和艺术影像媒介一席谈，2017年将特别聚焦收藏艺术，以及私人与公共美术馆在亚太地区摄影市场发展中的角色等议题。</p><p><img src=\"http://7xkcpc.com2.z0.glb.qiniucdn.com/pgc/richtext/2797073ffb3c40099457a414e0622a27.jpg#900|900\"/></p><p>Scarlett Hooft Graafland, Salt Steps, Flowers Gallery<br/></p><p>洞见 Insights&nbsp;</p><p>2016年备受专业人士瞩目的“洞见”展览版块将延续其前沿性和实验性，2017年新展将从William Eggleston, Harry Callahan等前卫艺术家的影响，追踪至蒋鹏奕, Andrea Good, 沈玮, 赵仁辉等下一代当代艺术家的创作。该版块亦将巡回至影像旧金山艺术博览会。</p><p><img src=\"http://7xkcpc.com2.z0.glb.qiniucdn.com/pgc/richtext/6531f0965297495093c0c8755eeddb31.jpg#900|900\"/></p><p>Nadav Kander, The Aral Sea I officers housing, Kazakhstan, Flowers Gallery</p>",
		"imageLists": [{
			"key": "pgc/activity/4b13087ef2714727b27faaeaf061ca88.jpg",
			"width": 600,
			"height": 288
		}],
		"stock": 118,
		"orderImages": {
			"key": "pgc/activity/e7da1ed1e9214e14877e13c68d9f1a19.jpg",
			"width": 400,
			"height": 400
		},
		"covetImages": {
			"key": "pgc/activity/674373ee0edf46de897078f6ada9128d.jpg",
			"width": 600,
			"height": 288
		},
		"reminder": "开放时间：11:00-18:00\n贵宾门票9月8日-10日：两人多次入场；\n公众日门票9月9日-10日：一票一次入场；\n请于前台凭手机号/订单号兑换入场；\n一经售出，恕不退换\n购买开幕之夜门票或贵宾门票的观众，会有工作人员主动与您联系，并寄出纸质门票邀请函",
		"summary": "时间：2017/9/8 - 2017/9/10\n地点：上海市延安中路1000号 | 上海展览中心",
		"isEnable": true,
		"sortId": 0,
		"brand": "上海展览中心",
		"supplierSku": "20170801163314",
		"safeStock": 20,
		"canExchangeScore": false,
		"nativeUrl": "http://www.vart.cc/activities/4476",
		"name_en": "PHOTOFAIRS Shanghai 2017",
		"description_en": "<p>【Highlights】</p><p><img src=\"http://7xkcpc.com2.z0.glb.qiniucdn.com/pgc/richtext/a62b4dd12c244186a2ce790706d69ec7.jpg#900|1345\"/><br/></p><p><img src=\"http://7xkcpc.com2.z0.glb.qiniucdn.com/pgc/richtext/2d2a410f5e3e4368a621a9569c7b095c.jpg#900|506\"/></p><p><img src=\"http://7xkcpc.com2.z0.glb.qiniucdn.com/pgc/richtext/76e76d1f26c44efc8337432e052509bc.jpg#900|585\"/></p><p><img src=\"http://7xkcpc.com2.z0.glb.qiniucdn.com/pgc/richtext/01d66be6dce447a6b5ed76d5f057c0d6.jpg#900|593\"/></p><p><img src=\"http://7xkcpc.com2.z0.glb.qiniucdn.com/pgc/richtext/262fa274c86447ada0fd34fd8a1059c8.jpg#900|600\"/></p><p><img src=\"http://7xkcpc.com2.z0.glb.qiniucdn.com/pgc/richtext/56eb0c88155548c98c80f1e604d373d5.jpg#900|890\"/></p><p><img src=\"http://7xkcpc.com2.z0.glb.qiniucdn.com/pgc/richtext/efc05d353424436286c15d6011294377.jpg#900|900\"/></p><p><img src=\"http://7xkcpc.com2.z0.glb.qiniucdn.com/pgc/richtext/757eb4ef37d645768bd4b456adf26719.jpg#900|900\"/></p><p><br/></p>",
		"reminder_en": "Opening day ticket：9/7   18:00-21:00\nVIP  ticket：multiple entering of two people\nPublic day ticket：Can only be used once\nOpen Time：11:00-18:00\nWhether you buy Opening Night tickets or VIP tickets, the staff will contact you forwardly and sent you the papery tickets and invitation by express.\n*No refund will be made upon sale\n\n\n",
		"summary_en": "Time：2017/9/8 - 2017/9/10\nSponsor：No. 1000 Yanan Road | Shanghai Exhibition Centre",
		"isMemberProduct": false,
		"mpProductIds": [],
		"canBuy": true,
		"tenantAgentIds": [],
		"saleType": 0
	}, {
		"id": 78,
		"name": "《阈限结构》/《挂塔&完美鸭潭》",
		"tenantId": 1,
		"productCategoryId": 7,
		"sku": "20170906175108",
		"commentCount": 0,
		"price": 0.00,
		"freight": 0.00,
		"startPrice": 50.00,
		"endPrice": 228.00,
		"startDate": "2017-09-06T17:51:32",
		"endDate": "2017-10-15T12:00:02",
		"description": "<p><img src=\"http://7xkcpc.com2.z0.glb.qiniucdn.com/pgc/richtext/1dd9cda4702240bb9502ac80f756da2f.jpg#415|233\"/></p><p><img src=\"http://7xkcpc.com2.z0.glb.qiniucdn.com/pgc/richtext/25846dcad4e24de6956862a3b6f6476f.jpg#900|765\"/>展览一：《阈限结构》</p><p>艺术家李竞雄来自于绘画背景，在实践中打破材料和媒介的束缚和界限以营造一种整体性、多层次的场域来回应核心主题。他为钢、铜等材料，以及显示器、键盘等现成品赋予社会属性，将它们作为个体经验和认知的延伸。他在作品中选取同样极端化的手段来对抗极端的现实，以换取系统的平衡。他在创作中将暴力作为极端化的重要表现，将之视作为了迅速解决问题或者蒙混过关所采取的突变手段，带有着残酷的侵略性和悲剧气质，并将之作为审美和观看的对象。此外，他的作品展现出对于赌博式的技术革命和斗兽场般异化的社会竞争的批判，并对以传统和社会安全感为代价的，非协商式的、非民主的进步进行质疑。</p><p><img src=\"http://7xkcpc.com2.z0.glb.qiniucdn.com/pgc/richtext/b512fd25f9db428286504e36276532f4.jpg#900|528\"/></p><p>李竞雄 《Egoby》<br/></p><p><img src=\"http://7xkcpc.com2.z0.glb.qiniucdn.com/pgc/richtext/0e578997c0b141108e0a6a5ec9f778c0.jpg#900|559\"/></p><p>李竞雄 《野兽绘画 No.5》<br/></p><p><img src=\"http://7xkcpc.com2.z0.glb.qiniucdn.com/pgc/richtext/34d3f6785d76458ea7886f36c7dbcf73.jpg#900|599\"/></p><p>李竞雄 《野兽绘画 No.6》<br/></p><p><img src=\"http://7xkcpc.com2.z0.glb.qiniucdn.com/pgc/richtext/a4ba3e5b96b24ab09d6f9568a5bbead4.jpg#900|601\"/></p><p>李竞雄 《无题》<br/></p><p>展览二：《挂塔&amp;完美鸭潭》</p><p>“挂塔”代表民间传统智慧。“完美鸭潭”象征对乌托邦式理想世界的向往。（而理想世界包含外界和自身、肉体和精神两部分）两个线索贯穿这批创作之间、是新与旧、内与外、建立与打破、不同文化间的矛盾与诉求。完美鸭潭也是艺术家耿旖旎作品的名字，画面充满迷幻超现实趣味、是不切实际的美好景象，它代表充满幻想的一批作品。</p><p></p><p><img src=\"http://7xkcpc.com2.z0.glb.qiniucdn.com/pgc/richtext/b903e8cc7d494679a9a3972812cf7594.jpg#900|717\"/></p><p>耿旖旎 《掘金大道》<br/></p><p><img src=\"http://7xkcpc.com2.z0.glb.qiniucdn.com/pgc/richtext/7a807790ad844154a542ae6b9ccfad2c.jpg#900|716\"/></p><p>耿旖旎 《黑熊解剖图》<br/></p><p><img src=\"http://7xkcpc.com2.z0.glb.qiniucdn.com/pgc/richtext/0ba9f3a006e14def932bd5e984523a6c.jpg#900|724\"/></p><p>耿旖旎 《完美鸭潭》<br/></p><p><img src=\"http://7xkcpc.com2.z0.glb.qiniucdn.com/pgc/richtext/909cf0a46de647c3b97e1acb3e3198b9.jpg#900|776\"/></p><p>耿旖旎 《超级英雄2-珍珠》</p><p><br/></p>",
		"imageLists": [{
			"key": "pgc/activity/abc7e4bef9b144aea056e32a70ac40a7.jpg",
			"width": 600,
			"height": 288
		}],
		"stock": 1200,
		"orderImages": {
			"key": "pgc/activity/64f167a1ad6745e69c0a21658742fb69.jpg",
			"width": 400,
			"height": 400
		},
		"covetImages": {
			"key": "pgc/activity/8f48b655e305490ba53b972facb7402d.jpg",
			"width": 600,
			"height": 288
		},
		"reminder": "10:00-20:00（19:30停止售票/入场）\n每位成人可免费携带一位1.2米以下儿童入场\n「超值套票1」包含门票一张+美术馆猫公仔\n「超值套票2」包含门票一张+坐井观天万花筒\n一票一次入场；\nK11金卡会员凭有效会员卡至前台可享买一赠一优惠\n请于前台凭手机号/订单号兑换入场；\n一经售出，恕不退换",
		"summary": "时间：2017/9/16-2017/10/15\n地点：上海市淮海中路300号 | chi K11 美术馆",
		"isEnable": true,
		"sortId": 0,
		"brand": "K11",
		"supplierSku": "20170906175108",
		"safeStock": 10,
		"canExchangeScore": false,
		"nativeUrl": "http://www.vart.cc/activities/4679",
		"name_en": "Fleshware / Perfect Duck Deep",
		"isMemberProduct": false,
		"mpProductIds": [],
		"canBuy": true,
		"canDisplayInApp": false,
		"tenantAgentIds": [],
		"saleType": 0
	}, {
		"id": 71,
		"name": "北京国际花植设计节",
		"tenantId": 1,
		"productCategoryId": 7,
		"sku": "20170905155717",
		"commentCount": 0,
		"price": 0.00,
		"freight": 0.00,
		"startPrice": 20.00,
		"endPrice": 20.00,
		"startDate": "2017-09-05T16:25:49",
		"endDate": "2017-10-22T11:00:04",
		"description": "<p>北京国际花植设计节，被媒体誉为“亚洲最美设计节”。是由国内新锐花艺师联合发起的花艺、植物生活美学概念秀。设计节涵盖装置艺术、居家、橱窗、婚礼、宴会、礼品、商业活动等花植设计领域的新锐概念及作品的专业发布，以及融合各类花植跨界消费、娱乐活动，致力于打造每年一届的国内外品牌和设计师推广形象、展示创意、发布趋势的时尚盛会。</p><p><img src=\"http://7xkcpc.com2.z0.glb.qiniucdn.com/pgc/richtext/789380e1e6624e7ab4684cb0100fbc1b.jpg#640|905\"/></p><p>【概览】</p><p>Floral CHINA 2016作品</p><p><img src=\"http://7xkcpc.com2.z0.glb.qiniucdn.com/pgc/richtext/caef26d64a7c40ccbf3d4a0c9cbb47a5.jpg#640|306\"/></p><p>欧子</p><p><img src=\"http://7xkcpc.com2.z0.glb.qiniucdn.com/pgc/richtext/6b8cb174bc88466c9f1917d2e930d131.jpg#640|380\"/></p><p>《生命之花》阿桑×南瓜子<br/></p><p><br/></p><p><img src=\"http://7xkcpc.com2.z0.glb.qiniucdn.com/pgc/richtext/f2244d9a67ad4d7c8f9f3c79def73733.jpg#640|383\"/></p><p>《重生》三卷花室</p><p><br/></p><p>Floral CHINA 2017部分参展作品手稿</p><p><img src=\"http://7xkcpc.com2.z0.glb.qiniucdn.com/pgc/richtext/c8908ce80b0842b9b5efb19df381f51a.jpg#640|479\"/></p><p><img src=\"http://7xkcpc.com2.z0.glb.qiniucdn.com/pgc/richtext/dee86f29db2c4e72b0f21f00e2c076c4.jpg#640|400\"/></p><p><img src=\"http://7xkcpc.com2.z0.glb.qiniucdn.com/pgc/richtext/7a7e5a1024bb4920aad70501cade7fc8.jpg#640|423\"/></p><p><br/></p>",
		"imageLists": [{
			"key": "pgc/activity/15a34774e0084d0db1cf387fdc75ae91.jpg",
			"width": 600,
			"height": 288
		}],
		"stock": 298,
		"orderImages": {
			"key": "pgc/activity/6859a50d2c5648f1adfc9eab909317ac.jpg",
			"width": 400,
			"height": 400
		},
		"covetImages": {
			"key": "pgc/activity/046ea734a25b4557a528348b66a44edb.jpg",
			"width": 600,
			"height": 288
		},
		"reminder": "9:00-19:00（18:00停止入场）\n1.2米以上儿童需购票入场，12岁以下儿童需在成人的陪同下观展\n一票一次入场；\n请于前台凭手机号/订单号兑换入场；\n一经售出，恕不退换",
		"summary": "时间：2017/9/23-2017/10/22\n地点：北京市西城区后海北沿西端46号 | 北京宋庆龄同志故居",
		"isEnable": true,
		"sortId": 0,
		"brand": "宋庆龄同志故居",
		"safeStock": 20,
		"canExchangeScore": false,
		"nativeUrl": "http://www.vart.cc/activities/4669",
		"name_en": "Floral CHINA 2017",
		"isMemberProduct": false,
		"mpProductIds": [],
		"canBuy": true,
		"canDisplayInApp": false,
		"tenantAgentIds": [],
		"saleType": 0
	}, {
		"id": 70,
		"name": "「预售」奇迹",
		"tenantId": 1,
		"productCategoryId": 7,
		"sku": "20170904154524",
		"commentCount": 0,
		"price": 0.00,
		"freight": 0.00,
		"startPrice": 50.00,
		"endPrice": 120.00,
		"startDate": "2017-09-04T16:37:05",
		"endDate": "2017-09-15T23:59:55",
		"description": "<p>本次展览将通过原景再现的方式在上海“空降”贝利尼博物馆，同时通过新媒体及AR等技术的运用，从视觉、听觉、嗅觉等多方位感官上呈现600年前意大利文艺复兴时期佛罗伦萨的文化艺术及生活场景，致力于让观众不出国门就可以身临其境、细细品味意大利顶级博物馆级别的作品与布展。展览期间，还将不间断举办各类论坛、讲座、教育活动，设计针对不同年龄段观众的互动活动，以全新、全面的视角，让社会民众全方位了解文艺复兴的不朽奇迹及其伟大的文化价值。</p><p><img src=\"http://7xkcpc.com2.z0.glb.qiniucdn.com/pgc/richtext/feea4e367e9248e2bb458735e5ffac51.jpg#900|467\"/></p><p>【概览】</p><p><img src=\"http://7xkcpc.com2.z0.glb.qiniucdn.com/pgc/richtext/2cf9ec05e6e74a03b5b11017dbe41a93.jpg#900|1212\"/></p><p>纳泰罗，《年轻的女孩多》，混凝纸半身像，意大利，15世纪<br/></p><p><img src=\"http://7xkcpc.com2.z0.glb.qiniucdn.com/pgc/richtext/71bfdb2d2fdf48ffb6a8f44c59551d0c.jpg#900|347\"/></p><p>保罗•斯佳沃，《维纳斯与丘比特》，蛋彩画，50.8×170cm，意大利，约1440-1445<br/></p><p><img src=\"http://7xkcpc.com2.z0.glb.qiniucdn.com/pgc/richtext/bc85def422284d82bf65a9fdcd63c9d5.jpg#900|1305\"/></p><p>安吉利科，《圣母玛利亚和圣子》，木板油画，63×34cm，15世纪<br/></p><p><img src=\"http://7xkcpc.com2.z0.glb.qiniucdn.com/pgc/richtext/0e1b00d688c64e0ba9c8b0a52166d55b.jpg#900|1140\"/></p><p>卡纳莱托，《随想》，布面油画，128×93.5cm，意大利，约 1765<img src=\"http://7xkcpc.com2.z0.glb.qiniucdn.com/pgc/richtext/1850128bd0044ad8ab81ffa1bfccdcf7.jpg#900|1210\"/></p><p>米开朗基罗•博那罗蒂，《安若提诺·郎弗冉奇》（磨刀工人），高佛理那岩石，111×61×108cm，意大利，16世纪私人收藏<br/></p><p><img src=\"http://7xkcpc.com2.z0.glb.qiniucdn.com/pgc/richtext/65de8f37a1544f6b8f3f6be8b1d3b473.jpg#900|1314\"/></p><p>安迪·沃霍尔，《蒙娜丽莎》（一组四幅），布面多重乳化画，108.5×72cm，美国，ca.1979</p><p><img src=\"http://7xkcpc.com2.z0.glb.qiniucdn.com/pgc/richtext/74ce44ea245d4b4da535d1fa76743412.jpg#900|435\"/></p><p>雷昂纳多·达芬奇，《最后的晚餐》，版画，45.1×74.6cm，19 世纪初beginning XIX century</p><p><br/></p>",
		"imageLists": [{
			"key": "pgc/activity/48de8dc59bcd4cffbae2bb7121d00c88.jpg",
			"width": 600,
			"height": 288
		}],
		"stock": 383,
		"orderImages": {
			"key": "pgc/activity/932158922ed84eb9b5d5a708e45956f7.jpg",
			"width": 400,
			"height": 400
		},
		"covetImages": {
			"key": "pgc/activity/4b2a37f901764b1daeeed63828a3b953.jpg",
			"width": 600,
			"height": 288
		},
		"reminder": "开放时间： 10:00 - 18:00（17：00禁止入场）\n「开幕巨惠票」仅限于开幕前三天使用，一次使用（9月28-9月30日）\n「特惠通票」一人一次入场；\n每位成人可免费携带一位1.2米以下儿童\n一经售出，恕不退换",
		"summary": "时间：2017/9/28-2017/12/23\n地点：上海市浦东新区樱花路869号 | 上海喜玛拉雅美术馆",
		"isEnable": true,
		"sortId": 0,
		"brand": "喜玛拉雅美术馆",
		"safeStock": 10,
		"canExchangeScore": false,
		"nativeUrl": "http://www.vart.cc/activities/4655",
		"name_en": "Miracle",
		"isMemberProduct": false,
		"mpProductIds": [],
		"canBuy": true,
		"canDisplayInApp": false,
		"tenantAgentIds": [],
		"saleType": 0
	}]
}